<svg width="612" height="180" viewBox="0 0 406 115" fill="none" xmlns="http://www.w3.org/2000/svg">
<g filter="url(#filter0_d)">
<g filter="url(#filter1_d)">
<path d="M401 106.008L35.3563 106.03L5 1.02417L377.147 1.00143L401 106.008Z" fill="#0DCEDA"/>
<path d="M401 106.008L35.3563 106.03L5 1.02417L377.147 1.00143L401 106.008Z" stroke="#0DCEDA"/>
</g>
<path d="M117.28 62.04C116.66 62.04 116 62.06 115.3 62.1C114.62 62.14 113.93 62.2 113.23 62.28C112.53 62.36 111.84 62.47 111.16 62.61C110.5 62.73 109.9 62.88 109.36 63.06C109.48 62.16 109.62 61.16 109.78 60.06C109.94 58.96 110.12 57.82 110.32 56.64C110.54 55.46 110.75 54.27 110.95 53.07C111.17 51.87 111.39 50.72 111.61 49.62C112.11 47 112.64 44.33 113.2 41.61L118.45 40.92C117.91 43.24 117.39 45.5 116.89 47.7C116.67 48.64 116.45 49.62 116.23 50.64C116.01 51.64 115.8 52.62 115.6 53.58C115.4 54.54 115.22 55.47 115.06 56.37C114.9 57.27 114.77 58.07 114.67 58.77C115.17 58.73 115.7 58.71 116.26 58.71C116.84 58.69 117.35 58.68 117.79 58.68C117.81 59.06 117.84 59.44 117.88 59.82C117.92 60.18 117.96 60.51 118 60.81C118.06 61.11 118.1 61.38 118.12 61.62C118.16 61.84 118.19 61.99 118.21 62.07C118.05 62.07 117.89 62.07 117.73 62.07C117.59 62.05 117.44 62.04 117.28 62.04ZM134.853 46.77C134.853 48.41 134.673 49.96 134.313 51.42C133.973 52.86 133.513 54.19 132.933 55.41C132.353 56.61 131.673 57.69 130.893 58.65C130.133 59.59 129.333 60.4 128.493 61.08C127.653 61.74 126.803 62.25 125.943 62.61C125.083 62.95 124.263 63.12 123.483 63.12C122.823 63.12 122.223 63 121.683 62.76C121.143 62.5 120.673 62.13 120.273 61.65C119.873 61.15 119.553 60.52 119.313 59.76C119.093 58.98 118.983 58.05 118.983 56.97C118.983 55.85 119.123 54.67 119.403 53.43C119.683 52.19 120.063 50.96 120.543 49.74C121.023 48.52 121.613 47.36 122.313 46.26C123.013 45.16 123.783 44.19 124.623 43.35C125.463 42.49 126.363 41.81 127.323 41.31C128.283 40.81 129.283 40.56 130.323 40.56C131.223 40.56 131.963 40.75 132.543 41.13C133.143 41.49 133.603 41.97 133.923 42.57C134.263 43.15 134.503 43.81 134.643 44.55C134.783 45.29 134.853 46.03 134.853 46.77ZM123.453 56.19C123.453 56.41 123.493 56.64 123.573 56.88C123.653 57.12 123.763 57.33 123.903 57.51C124.043 57.69 124.213 57.85 124.413 57.99C124.633 58.11 124.863 58.17 125.103 58.17C126.003 58.17 126.803 57.86 127.503 57.24C128.203 56.62 128.783 55.86 129.243 54.96C129.703 54.06 130.053 53.1 130.293 52.08C130.553 51.06 130.683 50.13 130.683 49.29C130.683 49.05 130.663 48.79 130.623 48.51C130.603 48.23 130.543 47.97 130.443 47.73C130.363 47.49 130.223 47.29 130.023 47.13C129.843 46.95 129.593 46.86 129.273 46.86C128.633 46.86 128.043 47.02 127.503 47.34C126.963 47.66 126.473 48.09 126.033 48.63C125.613 49.15 125.243 49.75 124.923 50.43C124.603 51.09 124.323 51.77 124.083 52.47C123.863 53.15 123.703 53.82 123.603 54.48C123.503 55.14 123.453 55.71 123.453 56.19ZM146.138 55.59C146.138 56.71 145.918 57.73 145.478 58.65C145.058 59.55 144.478 60.33 143.738 60.99C143.018 61.65 142.158 62.16 141.158 62.52C140.178 62.88 139.118 63.06 137.978 63.06C137.178 63.06 136.378 62.85 135.578 62.43C134.778 61.99 134.008 61.3 133.268 60.36L135.488 56.01C135.628 56.27 135.838 56.54 136.118 56.82C136.398 57.08 136.708 57.31 137.048 57.51C137.408 57.71 137.758 57.88 138.098 58.02C138.458 58.14 138.778 58.2 139.058 58.2C139.298 58.2 139.548 58.16 139.808 58.08C140.068 58 140.308 57.88 140.528 57.72C140.748 57.56 140.918 57.38 141.038 57.18C141.178 56.96 141.248 56.71 141.248 56.43C141.248 55.95 141.088 55.51 140.768 55.11C140.468 54.69 140.088 54.3 139.628 53.94C139.168 53.56 138.668 53.18 138.128 52.8C137.588 52.42 137.088 52.02 136.628 51.6C136.188 51.18 135.808 50.71 135.488 50.19C135.168 49.67 135.008 49.09 135.008 48.45C135.008 47.41 135.318 46.44 135.938 45.54C136.558 44.64 137.328 43.87 138.248 43.23C139.188 42.57 140.208 42.05 141.308 41.67C142.408 41.29 143.448 41.1 144.428 41.1C144.968 41.1 145.478 41.17 145.958 41.31C146.438 41.43 146.848 41.64 147.188 41.94C147.548 42.22 147.828 42.58 148.028 43.02C148.248 43.46 148.358 44.01 148.358 44.67C148.358 44.95 148.328 45.23 148.268 45.51C148.228 45.79 148.188 46.09 148.148 46.41L143.798 47.67C143.838 47.51 143.868 47.35 143.888 47.19C143.928 47.03 143.948 46.87 143.948 46.71C143.948 46.11 143.838 45.68 143.618 45.42C143.418 45.14 143.148 45 142.808 45C142.648 45 142.448 45.06 142.208 45.18C141.988 45.3 141.758 45.46 141.518 45.66C141.298 45.84 141.108 46.06 140.948 46.32C140.788 46.58 140.708 46.86 140.708 47.16C140.708 47.64 140.838 48.04 141.098 48.36C141.378 48.68 141.718 48.98 142.118 49.26C142.518 49.54 142.948 49.83 143.408 50.13C143.888 50.41 144.328 50.78 144.728 51.24C145.128 51.7 145.458 52.28 145.718 52.98C145.998 53.66 146.138 54.53 146.138 55.59ZM148.438 63.03C148.898 60.83 149.338 58.66 149.758 56.52C149.938 55.62 150.118 54.68 150.298 53.7C150.478 52.72 150.648 51.76 150.808 50.82C150.988 49.86 151.138 48.94 151.258 48.06C151.398 47.16 151.518 46.34 151.618 45.6C151.158 45.54 150.688 45.52 150.208 45.54C149.748 45.56 149.288 45.5 148.828 45.36C148.848 45.04 148.858 44.67 148.858 44.25C148.858 43.83 148.868 43.41 148.888 42.99C148.908 42.53 148.928 42.04 148.948 41.52C149.468 41.56 149.988 41.59 150.508 41.61C151.028 41.63 151.548 41.64 152.068 41.64C153.088 41.64 154.068 41.62 155.008 41.58C155.968 41.52 156.848 41.46 157.648 41.4C158.468 41.32 159.268 41.23 160.048 41.13L159.718 42.75C159.618 43.21 159.518 43.68 159.418 44.16C159.338 44.64 159.258 45.05 159.178 45.39C158.738 45.51 158.288 45.6 157.828 45.66C157.388 45.7 156.948 45.76 156.508 45.84C156.368 46.52 156.218 47.28 156.058 48.12C155.898 48.94 155.738 49.8 155.578 50.7C155.438 51.58 155.298 52.48 155.158 53.4C155.018 54.32 154.878 55.2 154.738 56.04C154.418 58.02 154.118 60.07 153.838 62.19L148.438 63.03ZM167.567 62.4C167.387 62.4 167.027 62.43 166.487 62.49C165.967 62.53 165.427 62.59 164.867 62.67C164.307 62.73 163.797 62.79 163.337 62.85C162.897 62.91 162.657 62.95 162.617 62.97C162.817 62.11 163.017 61.16 163.217 60.12C163.437 59.06 163.657 57.96 163.877 56.82C164.097 55.66 164.307 54.49 164.507 53.31C164.707 52.13 164.897 50.99 165.077 49.89C165.497 47.33 165.917 44.7 166.337 42L171.017 41.25C170.557 43.93 170.107 46.56 169.667 49.14C169.487 50.24 169.297 51.38 169.097 52.56C168.917 53.74 168.727 54.91 168.527 56.07C168.347 57.23 168.177 58.36 168.017 59.46C167.857 60.54 167.707 61.52 167.567 62.4ZM168.681 63.15C169.281 60.27 169.851 57.48 170.391 54.78C170.591 53.62 170.801 52.42 171.021 51.18C171.261 49.94 171.481 48.72 171.681 47.52C171.881 46.3 172.061 45.14 172.221 44.04C172.381 42.92 172.501 41.91 172.581 41.01C172.841 41.03 173.061 41.04 173.241 41.04C173.421 41.04 173.631 41.04 173.871 41.04C174.151 41.04 174.491 41.04 174.891 41.04C175.291 41.02 175.691 41 176.091 40.98C176.491 40.96 176.921 40.94 177.381 40.92C177.661 42.32 177.911 43.67 178.131 44.97C178.351 46.11 178.571 47.28 178.791 48.48C179.031 49.68 179.241 50.7 179.421 51.54C179.501 51.14 179.591 50.68 179.691 50.16C179.791 49.62 179.901 49.06 180.021 48.48C180.141 47.9 180.251 47.32 180.351 46.74C180.471 46.14 180.591 45.55 180.711 44.97C180.991 43.67 181.281 42.33 181.581 40.95L185.241 40.5C184.561 43.56 183.961 46.46 183.441 49.2C183.201 50.38 182.961 51.58 182.721 52.8C182.501 54 182.291 55.16 182.091 56.28C181.891 57.38 181.721 58.41 181.581 59.37C181.441 60.31 181.331 61.1 181.251 61.74C181.191 61.74 180.951 61.79 180.531 61.89C180.131 61.97 179.661 62.07 179.121 62.19C178.601 62.31 178.071 62.43 177.531 62.55C177.011 62.67 176.621 62.78 176.361 62.88C176.241 61.28 176.111 59.76 175.971 58.32C175.911 57.7 175.841 57.07 175.761 56.43C175.701 55.77 175.631 55.14 175.551 54.54C175.471 53.94 175.391 53.38 175.311 52.86C175.231 52.34 175.151 51.89 175.071 51.51C175.011 51.89 174.931 52.33 174.831 52.83C174.731 53.33 174.631 53.86 174.531 54.42C174.431 54.98 174.331 55.57 174.231 56.19C174.131 56.79 174.021 57.37 173.901 57.93C173.641 59.27 173.361 60.67 173.061 62.13L168.681 63.15ZM190.655 63.03C191.115 60.83 191.555 58.66 191.975 56.52C192.155 55.62 192.335 54.68 192.515 53.7C192.695 52.72 192.865 51.76 193.025 50.82C193.205 49.86 193.355 48.94 193.475 48.06C193.615 47.16 193.735 46.34 193.835 45.6C193.375 45.54 192.905 45.52 192.425 45.54C191.965 45.56 191.505 45.5 191.045 45.36C191.065 45.04 191.075 44.67 191.075 44.25C191.075 43.83 191.085 43.41 191.105 42.99C191.125 42.53 191.145 42.04 191.165 41.52C191.685 41.56 192.205 41.59 192.725 41.61C193.245 41.63 193.765 41.64 194.285 41.64C195.305 41.64 196.285 41.62 197.225 41.58C198.185 41.52 199.065 41.46 199.865 41.4C200.685 41.32 201.485 41.23 202.265 41.13L201.935 42.75C201.835 43.21 201.735 43.68 201.635 44.16C201.555 44.64 201.475 45.05 201.395 45.39C200.955 45.51 200.505 45.6 200.045 45.66C199.605 45.7 199.165 45.76 198.725 45.84C198.585 46.52 198.435 47.28 198.275 48.12C198.115 48.94 197.955 49.8 197.795 50.7C197.655 51.58 197.515 52.48 197.375 53.4C197.235 54.32 197.095 55.2 196.955 56.04C196.635 58.02 196.335 60.07 196.055 62.19L190.655 63.03ZM198.944 63.03C199.484 60.37 200.004 57.77 200.504 55.23C200.684 54.15 200.884 53.03 201.104 51.87C201.324 50.69 201.524 49.53 201.704 48.39C201.904 47.23 202.084 46.12 202.244 45.06C202.424 43.98 202.564 43 202.664 42.12C203.804 41.76 205.034 41.5 206.354 41.34C207.674 41.16 208.984 41.07 210.284 41.07C211.064 41.07 211.704 41.16 212.204 41.34C212.724 41.52 213.124 41.78 213.404 42.12C213.704 42.44 213.914 42.82 214.034 43.26C214.154 43.7 214.214 44.19 214.214 44.73C214.214 45.53 214.074 46.32 213.794 47.1C213.514 47.86 213.134 48.59 212.654 49.29C212.194 49.97 211.654 50.6 211.034 51.18C210.434 51.74 209.784 52.2 209.084 52.56C209.444 53.36 209.824 54.24 210.224 55.2C210.644 56.14 211.034 57.04 211.394 57.9C211.794 58.9 212.204 59.9 212.624 60.9L207.974 62.52C207.574 61.24 207.214 60.04 206.894 58.92C206.754 58.46 206.614 57.99 206.474 57.51C206.334 57.01 206.204 56.54 206.084 56.1C205.964 55.66 205.864 55.27 205.784 54.93C205.704 54.57 205.654 54.28 205.634 54.06L205.244 54.18C205.124 54.82 204.974 55.57 204.794 56.43C204.634 57.29 204.484 58.12 204.344 58.92C204.164 59.86 203.984 60.81 203.804 61.77L198.944 63.03ZM205.994 50.01C206.374 49.97 206.834 49.81 207.374 49.53C207.934 49.25 208.464 48.92 208.964 48.54C209.464 48.14 209.894 47.73 210.254 47.31C210.614 46.89 210.794 46.52 210.794 46.2C210.794 45.98 210.724 45.81 210.584 45.69C210.444 45.55 210.244 45.45 209.984 45.39C209.744 45.31 209.474 45.26 209.174 45.24C208.874 45.22 208.564 45.21 208.244 45.21C208.024 45.21 207.794 45.22 207.554 45.24C207.334 45.24 207.134 45.24 206.954 45.24L205.994 50.01ZM223.194 62.4C222.694 62.48 222.144 62.57 221.544 62.67C220.944 62.77 220.404 62.86 219.924 62.94C220.004 62.28 220.084 61.63 220.164 60.99C220.224 60.43 220.274 59.87 220.314 59.31C220.374 58.75 220.424 58.27 220.464 57.87H217.854L216.654 62.19C216.214 62.25 215.694 62.32 215.094 62.4C214.494 62.46 213.934 62.52 213.414 62.58C212.774 62.66 212.144 62.74 211.524 62.82C212.324 60.16 213.114 57.54 213.894 54.96C214.214 53.88 214.544 52.75 214.884 51.57C215.244 50.39 215.594 49.22 215.934 48.06C216.294 46.88 216.634 45.75 216.954 44.67C217.274 43.59 217.554 42.6 217.794 41.7C219.154 41.6 220.534 41.48 221.934 41.34C223.354 41.2 224.734 41.01 226.074 40.77C226.014 41.41 225.944 42.21 225.864 43.17C225.804 44.11 225.744 45.14 225.684 46.26C225.624 47.38 225.564 48.55 225.504 49.77C225.444 50.99 225.384 52.19 225.324 53.37C225.224 56.13 225.114 59.06 224.994 62.16C224.394 62.26 223.794 62.34 223.194 62.4ZM218.574 54.87C218.654 54.87 218.794 54.87 218.994 54.87C219.214 54.85 219.434 54.84 219.654 54.84C219.894 54.82 220.114 54.81 220.314 54.81C220.514 54.79 220.654 54.77 220.734 54.75C220.734 54.63 220.744 54.43 220.764 54.15C220.804 53.85 220.834 53.52 220.854 53.16C220.894 52.78 220.934 52.37 220.974 51.93C221.014 51.49 221.054 51.06 221.094 50.64C221.174 49.62 221.274 48.52 221.394 47.34L221.574 44.73L221.124 44.76L220.434 47.34L218.574 54.87ZM225.283 63.15C225.883 60.27 226.453 57.48 226.993 54.78C227.193 53.62 227.403 52.42 227.623 51.18C227.863 49.94 228.083 48.72 228.283 47.52C228.483 46.3 228.663 45.14 228.823 44.04C228.983 42.92 229.103 41.91 229.183 41.01C229.443 41.03 229.663 41.04 229.843 41.04C230.023 41.04 230.233 41.04 230.473 41.04C230.753 41.04 231.093 41.04 231.493 41.04C231.893 41.02 232.293 41 232.693 40.98C233.093 40.96 233.523 40.94 233.983 40.92C234.263 42.32 234.513 43.67 234.733 44.97C234.953 46.11 235.173 47.28 235.393 48.48C235.633 49.68 235.843 50.7 236.023 51.54C236.103 51.14 236.193 50.68 236.293 50.16C236.393 49.62 236.503 49.06 236.623 48.48C236.743 47.9 236.853 47.32 236.953 46.74C237.073 46.14 237.193 45.55 237.313 44.97C237.593 43.67 237.883 42.33 238.183 40.95L241.843 40.5C241.163 43.56 240.563 46.46 240.043 49.2C239.803 50.38 239.563 51.58 239.323 52.8C239.103 54 238.893 55.16 238.693 56.28C238.493 57.38 238.323 58.41 238.183 59.37C238.043 60.31 237.933 61.1 237.853 61.74C237.793 61.74 237.553 61.79 237.133 61.89C236.733 61.97 236.263 62.07 235.723 62.19C235.203 62.31 234.673 62.43 234.133 62.55C233.613 62.67 233.223 62.78 232.963 62.88C232.843 61.28 232.713 59.76 232.573 58.32C232.513 57.7 232.443 57.07 232.363 56.43C232.303 55.77 232.233 55.14 232.153 54.54C232.073 53.94 231.993 53.38 231.913 52.86C231.833 52.34 231.753 51.89 231.673 51.51C231.613 51.89 231.533 52.33 231.433 52.83C231.333 53.33 231.233 53.86 231.133 54.42C231.033 54.98 230.933 55.57 230.833 56.19C230.733 56.79 230.623 57.37 230.503 57.93C230.243 59.27 229.963 60.67 229.663 62.13L225.283 63.15ZM251.987 55.59C251.987 56.71 251.767 57.73 251.327 58.65C250.907 59.55 250.327 60.33 249.587 60.99C248.867 61.65 248.007 62.16 247.007 62.52C246.027 62.88 244.967 63.06 243.827 63.06C243.027 63.06 242.227 62.85 241.427 62.43C240.627 61.99 239.857 61.3 239.117 60.36L241.337 56.01C241.477 56.27 241.687 56.54 241.967 56.82C242.247 57.08 242.557 57.31 242.897 57.51C243.257 57.71 243.607 57.88 243.947 58.02C244.307 58.14 244.627 58.2 244.907 58.2C245.147 58.2 245.397 58.16 245.657 58.08C245.917 58 246.157 57.88 246.377 57.72C246.597 57.56 246.767 57.38 246.887 57.18C247.027 56.96 247.097 56.71 247.097 56.43C247.097 55.95 246.937 55.51 246.617 55.11C246.317 54.69 245.937 54.3 245.477 53.94C245.017 53.56 244.517 53.18 243.977 52.8C243.437 52.42 242.937 52.02 242.477 51.6C242.037 51.18 241.657 50.71 241.337 50.19C241.017 49.67 240.857 49.09 240.857 48.45C240.857 47.41 241.167 46.44 241.787 45.54C242.407 44.64 243.177 43.87 244.097 43.23C245.037 42.57 246.057 42.05 247.157 41.67C248.257 41.29 249.297 41.1 250.277 41.1C250.817 41.1 251.327 41.17 251.807 41.31C252.287 41.43 252.697 41.64 253.037 41.94C253.397 42.22 253.677 42.58 253.877 43.02C254.097 43.46 254.207 44.01 254.207 44.67C254.207 44.95 254.177 45.23 254.117 45.51C254.077 45.79 254.037 46.09 253.997 46.41L249.647 47.67C249.687 47.51 249.717 47.35 249.737 47.19C249.777 47.03 249.797 46.87 249.797 46.71C249.797 46.11 249.687 45.68 249.467 45.42C249.267 45.14 248.997 45 248.657 45C248.497 45 248.297 45.06 248.057 45.18C247.837 45.3 247.607 45.46 247.367 45.66C247.147 45.84 246.957 46.06 246.797 46.32C246.637 46.58 246.557 46.86 246.557 47.16C246.557 47.64 246.687 48.04 246.947 48.36C247.227 48.68 247.567 48.98 247.967 49.26C248.367 49.54 248.797 49.83 249.257 50.13C249.737 50.41 250.177 50.78 250.577 51.24C250.977 51.7 251.307 52.28 251.567 52.98C251.847 53.66 251.987 54.53 251.987 55.59ZM259.868 62.04C259.248 62.04 258.588 62.06 257.888 62.1C257.208 62.14 256.518 62.2 255.818 62.28C255.118 62.36 254.428 62.47 253.748 62.61C253.088 62.73 252.488 62.88 251.948 63.06C252.068 62.16 252.208 61.16 252.368 60.06C252.528 58.96 252.708 57.82 252.908 56.64C253.128 55.46 253.338 54.27 253.538 53.07C253.758 51.87 253.978 50.72 254.198 49.62C254.698 47 255.228 44.33 255.788 41.61L261.038 40.92C260.498 43.24 259.978 45.5 259.478 47.7C259.258 48.64 259.038 49.62 258.818 50.64C258.598 51.64 258.388 52.62 258.188 53.58C257.988 54.54 257.808 55.47 257.648 56.37C257.488 57.27 257.358 58.07 257.258 58.77C257.758 58.73 258.288 58.71 258.848 58.71C259.428 58.69 259.938 58.68 260.378 58.68C260.398 59.06 260.428 59.44 260.468 59.82C260.508 60.18 260.548 60.51 260.588 60.81C260.648 61.11 260.688 61.38 260.708 61.62C260.748 61.84 260.778 61.99 260.798 62.07C260.638 62.07 260.478 62.07 260.318 62.07C260.178 62.05 260.028 62.04 259.868 62.04ZM271.681 62.4C271.181 62.48 270.631 62.57 270.031 62.67C269.431 62.77 268.891 62.86 268.411 62.94C268.491 62.28 268.571 61.63 268.651 60.99C268.711 60.43 268.761 59.87 268.801 59.31C268.861 58.75 268.911 58.27 268.951 57.87H266.341L265.141 62.19C264.701 62.25 264.181 62.32 263.581 62.4C262.981 62.46 262.421 62.52 261.901 62.58C261.261 62.66 260.631 62.74 260.011 62.82C260.811 60.16 261.601 57.54 262.381 54.96C262.701 53.88 263.031 52.75 263.371 51.57C263.731 50.39 264.081 49.22 264.421 48.06C264.781 46.88 265.121 45.75 265.441 44.67C265.761 43.59 266.041 42.6 266.281 41.7C267.641 41.6 269.021 41.48 270.421 41.34C271.841 41.2 273.221 41.01 274.561 40.77C274.501 41.41 274.431 42.21 274.351 43.17C274.291 44.11 274.231 45.14 274.171 46.26C274.111 47.38 274.051 48.55 273.991 49.77C273.931 50.99 273.871 52.19 273.811 53.37C273.711 56.13 273.601 59.06 273.481 62.16C272.881 62.26 272.281 62.34 271.681 62.4ZM267.061 54.87C267.141 54.87 267.281 54.87 267.481 54.87C267.701 54.85 267.921 54.84 268.141 54.84C268.381 54.82 268.601 54.81 268.801 54.81C269.001 54.79 269.141 54.77 269.221 54.75C269.221 54.63 269.231 54.43 269.251 54.15C269.291 53.85 269.321 53.52 269.341 53.16C269.381 52.78 269.421 52.37 269.461 51.93C269.501 51.49 269.541 51.06 269.581 50.64C269.661 49.62 269.761 48.52 269.881 47.34L270.061 44.73L269.611 44.76L268.921 47.34L267.061 54.87ZM276.319 63.03C276.779 60.83 277.219 58.66 277.639 56.52C277.819 55.62 277.999 54.68 278.179 53.7C278.359 52.72 278.529 51.76 278.689 50.82C278.869 49.86 279.019 48.94 279.139 48.06C279.279 47.16 279.399 46.34 279.499 45.6C279.039 45.54 278.569 45.52 278.089 45.54C277.629 45.56 277.169 45.5 276.709 45.36C276.729 45.04 276.739 44.67 276.739 44.25C276.739 43.83 276.749 43.41 276.769 42.99C276.789 42.53 276.809 42.04 276.829 41.52C277.349 41.56 277.869 41.59 278.389 41.61C278.909 41.63 279.429 41.64 279.949 41.64C280.969 41.64 281.949 41.62 282.889 41.58C283.849 41.52 284.729 41.46 285.529 41.4C286.349 41.32 287.149 41.23 287.929 41.13L287.599 42.75C287.499 43.21 287.399 43.68 287.299 44.16C287.219 44.64 287.139 45.05 287.059 45.39C286.619 45.51 286.169 45.6 285.709 45.66C285.269 45.7 284.829 45.76 284.389 45.84C284.249 46.52 284.099 47.28 283.939 48.12C283.779 48.94 283.619 49.8 283.459 50.7C283.319 51.58 283.179 52.48 283.039 53.4C282.899 54.32 282.759 55.2 282.619 56.04C282.299 58.02 281.999 60.07 281.719 62.19L276.319 63.03ZM289.588 62.4C289.408 62.4 289.048 62.43 288.508 62.49C287.988 62.53 287.448 62.59 286.888 62.67C286.328 62.73 285.818 62.79 285.358 62.85C284.918 62.91 284.678 62.95 284.638 62.97C284.838 62.11 285.038 61.16 285.238 60.12C285.458 59.06 285.678 57.96 285.898 56.82C286.118 55.66 286.328 54.49 286.528 53.31C286.728 52.13 286.918 50.99 287.098 49.89C287.518 47.33 287.938 44.7 288.358 42L293.038 41.25C292.578 43.93 292.128 46.56 291.688 49.14C291.508 50.24 291.318 51.38 291.118 52.56C290.938 53.74 290.748 54.91 290.548 56.07C290.368 57.23 290.198 58.36 290.038 59.46C289.878 60.54 289.728 61.52 289.588 62.4ZM307.353 46.77C307.353 48.41 307.173 49.96 306.813 51.42C306.473 52.86 306.013 54.19 305.433 55.41C304.853 56.61 304.173 57.69 303.393 58.65C302.633 59.59 301.833 60.4 300.993 61.08C300.153 61.74 299.303 62.25 298.443 62.61C297.583 62.95 296.763 63.12 295.983 63.12C295.323 63.12 294.723 63 294.183 62.76C293.643 62.5 293.173 62.13 292.773 61.65C292.373 61.15 292.053 60.52 291.813 59.76C291.593 58.98 291.483 58.05 291.483 56.97C291.483 55.85 291.623 54.67 291.903 53.43C292.183 52.19 292.563 50.96 293.043 49.74C293.523 48.52 294.113 47.36 294.813 46.26C295.513 45.16 296.283 44.19 297.123 43.35C297.963 42.49 298.863 41.81 299.823 41.31C300.783 40.81 301.783 40.56 302.823 40.56C303.723 40.56 304.463 40.75 305.043 41.13C305.643 41.49 306.103 41.97 306.423 42.57C306.763 43.15 307.003 43.81 307.143 44.55C307.283 45.29 307.353 46.03 307.353 46.77ZM295.953 56.19C295.953 56.41 295.993 56.64 296.073 56.88C296.153 57.12 296.263 57.33 296.403 57.51C296.543 57.69 296.713 57.85 296.913 57.99C297.133 58.11 297.363 58.17 297.603 58.17C298.503 58.17 299.303 57.86 300.003 57.24C300.703 56.62 301.283 55.86 301.743 54.96C302.203 54.06 302.553 53.1 302.793 52.08C303.053 51.06 303.183 50.13 303.183 49.29C303.183 49.05 303.163 48.79 303.123 48.51C303.103 48.23 303.043 47.97 302.943 47.73C302.863 47.49 302.723 47.29 302.523 47.13C302.343 46.95 302.093 46.86 301.773 46.86C301.133 46.86 300.543 47.02 300.003 47.34C299.463 47.66 298.973 48.09 298.533 48.63C298.113 49.15 297.743 49.75 297.423 50.43C297.103 51.09 296.823 51.77 296.583 52.47C296.363 53.15 296.203 53.82 296.103 54.48C296.003 55.14 295.953 55.71 295.953 56.19ZM305.498 63.15C306.098 60.27 306.668 57.48 307.208 54.78C307.408 53.62 307.618 52.42 307.838 51.18C308.078 49.94 308.298 48.72 308.498 47.52C308.698 46.3 308.878 45.14 309.038 44.04C309.198 42.92 309.318 41.91 309.398 41.01C309.658 41.03 309.878 41.04 310.058 41.04C310.238 41.04 310.448 41.04 310.688 41.04C310.968 41.04 311.308 41.04 311.708 41.04C312.108 41.02 312.508 41 312.908 40.98C313.308 40.96 313.738 40.94 314.198 40.92C314.478 42.32 314.728 43.67 314.948 44.97C315.168 46.11 315.388 47.28 315.608 48.48C315.848 49.68 316.058 50.7 316.238 51.54C316.318 51.14 316.408 50.68 316.508 50.16C316.608 49.62 316.718 49.06 316.838 48.48C316.958 47.9 317.068 47.32 317.168 46.74C317.288 46.14 317.408 45.55 317.528 44.97C317.808 43.67 318.098 42.33 318.398 40.95L322.058 40.5C321.378 43.56 320.778 46.46 320.258 49.2C320.018 50.38 319.778 51.58 319.538 52.8C319.318 54 319.108 55.16 318.908 56.28C318.708 57.38 318.538 58.41 318.398 59.37C318.258 60.31 318.148 61.1 318.068 61.74C318.008 61.74 317.768 61.79 317.348 61.89C316.948 61.97 316.478 62.07 315.938 62.19C315.418 62.31 314.888 62.43 314.348 62.55C313.828 62.67 313.438 62.78 313.178 62.88C313.058 61.28 312.928 59.76 312.788 58.32C312.728 57.7 312.658 57.07 312.578 56.43C312.518 55.77 312.448 55.14 312.368 54.54C312.288 53.94 312.208 53.38 312.128 52.86C312.048 52.34 311.968 51.89 311.888 51.51C311.828 51.89 311.748 52.33 311.648 52.83C311.548 53.33 311.448 53.86 311.348 54.42C311.248 54.98 311.148 55.57 311.048 56.19C310.948 56.79 310.838 57.37 310.718 57.93C310.458 59.27 310.178 60.67 309.878 62.13L305.498 63.15Z" fill="white"/>
</g>
<defs>
<filter id="filter0_d" x="0.334991" y="0.499939" width="405.291" height="114.032" filterUnits="userSpaceOnUse" color-interpolation-filters="sRGB">
<feFlood flood-opacity="0" result="BackgroundImageFix"/>
<feColorMatrix in="SourceAlpha" type="matrix" values="0 0 0 0 0 0 0 0 0 0 0 0 0 0 0 0 0 0 127 0"/>
<feOffset dy="4"/>
<feGaussianBlur stdDeviation="2"/>
<feColorMatrix type="matrix" values="0 0 0 0 0 0 0 0 0 0 0 0 0 0 0 0 0 0 0.25 0"/>
<feBlend mode="normal" in2="BackgroundImageFix" result="effect1_dropShadow"/>
<feBlend mode="normal" in="SourceGraphic" in2="effect1_dropShadow" result="shape"/>
</filter>
<filter id="filter1_d" x="0.334991" y="0.499939" width="405.291" height="114.032" filterUnits="userSpaceOnUse" color-interpolation-filters="sRGB">
<feFlood flood-opacity="0" result="BackgroundImageFix"/>
<feColorMatrix in="SourceAlpha" type="matrix" values="0 0 0 0 0 0 0 0 0 0 0 0 0 0 0 0 0 0 127 0"/>
<feOffset dy="4"/>
<feGaussianBlur stdDeviation="2"/>
<feColorMatrix type="matrix" values="0 0 0 0 0 0 0 0 0 0 0 0 0 0 0 0 0 0 0.25 0"/>
<feBlend mode="normal" in2="BackgroundImageFix" result="effect1_dropShadow"/>
<feBlend mode="normal" in="SourceGraphic" in2="effect1_dropShadow" result="shape"/>
</filter>
</defs>
</svg>
