<svg width="285" height="52" viewBox="0 0 285 52" fill="none" xmlns="http://www.w3.org/2000/svg">
<g filter="url(#filter0_d)">
<path d="M280 42.9997L26.0791 43.0148L5 1.01608L263.437 1.0007L280 42.9997Z" fill="#0DCEDA"/>
<path d="M280 42.9997L26.0791 43.0148L5 1.01608L263.437 1.0007L280 42.9997Z" stroke="#0DCEDA"/>
</g>
<path d="M34.886 33.03C35.346 30.83 35.786 28.66 36.206 26.52C36.386 25.62 36.566 24.68 36.746 23.7C36.926 22.72 37.096 21.76 37.256 20.82C37.436 19.86 37.586 18.94 37.706 18.06C37.846 17.16 37.966 16.34 38.066 15.6C37.606 15.54 37.136 15.52 36.656 15.54C36.196 15.56 35.736 15.5 35.276 15.36C35.296 15.04 35.306 14.67 35.306 14.25C35.306 13.83 35.316 13.41 35.336 12.99C35.356 12.53 35.376 12.04 35.396 11.52C35.916 11.56 36.436 11.59 36.956 11.61C37.476 11.63 37.996 11.64 38.516 11.64C39.536 11.64 40.516 11.62 41.456 11.58C42.416 11.52 43.296 11.46 44.096 11.4C44.916 11.32 45.716 11.23 46.496 11.13L46.166 12.75C46.066 13.21 45.966 13.68 45.866 14.16C45.786 14.64 45.706 15.05 45.626 15.39C45.186 15.51 44.736 15.6 44.276 15.66C43.836 15.7 43.396 15.76 42.956 15.84C42.816 16.52 42.666 17.28 42.506 18.12C42.346 18.94 42.186 19.8 42.026 20.7C41.886 21.58 41.746 22.48 41.606 23.4C41.466 24.32 41.326 25.2 41.186 26.04C40.866 28.02 40.566 30.07 40.286 32.19L34.886 33.03ZM43.1752 33.03C43.7152 30.37 44.2352 27.77 44.7352 25.23C44.9152 24.15 45.1152 23.03 45.3352 21.87C45.5552 20.69 45.7552 19.53 45.9352 18.39C46.1352 17.23 46.3152 16.12 46.4752 15.06C46.6552 13.98 46.7952 13 46.8952 12.12C48.0352 11.76 49.2652 11.5 50.5852 11.34C51.9052 11.16 53.2152 11.07 54.5152 11.07C55.2952 11.07 55.9352 11.16 56.4352 11.34C56.9552 11.52 57.3552 11.78 57.6352 12.12C57.9352 12.44 58.1452 12.82 58.2652 13.26C58.3852 13.7 58.4452 14.19 58.4452 14.73C58.4452 15.53 58.3052 16.32 58.0252 17.1C57.7452 17.86 57.3652 18.59 56.8852 19.29C56.4252 19.97 55.8852 20.6 55.2652 21.18C54.6652 21.74 54.0152 22.2 53.3152 22.56C53.6752 23.36 54.0552 24.24 54.4552 25.2C54.8752 26.14 55.2652 27.04 55.6252 27.9C56.0252 28.9 56.4352 29.9 56.8552 30.9L52.2052 32.52C51.8052 31.24 51.4452 30.04 51.1252 28.92C50.9852 28.46 50.8452 27.99 50.7052 27.51C50.5652 27.01 50.4352 26.54 50.3152 26.1C50.1952 25.66 50.0952 25.27 50.0152 24.93C49.9352 24.57 49.8852 24.28 49.8652 24.06L49.4752 24.18C49.3552 24.82 49.2052 25.57 49.0252 26.43C48.8652 27.29 48.7152 28.12 48.5752 28.92C48.3952 29.86 48.2152 30.81 48.0352 31.77L43.1752 33.03ZM50.2252 20.01C50.6052 19.97 51.0652 19.81 51.6052 19.53C52.1652 19.25 52.6952 18.92 53.1952 18.54C53.6952 18.14 54.1252 17.73 54.4852 17.31C54.8452 16.89 55.0252 16.52 55.0252 16.2C55.0252 15.98 54.9552 15.81 54.8152 15.69C54.6752 15.55 54.4752 15.45 54.2152 15.39C53.9752 15.31 53.7052 15.26 53.4052 15.24C53.1052 15.22 52.7952 15.21 52.4752 15.21C52.2552 15.21 52.0252 15.22 51.7852 15.24C51.5652 15.24 51.3652 15.24 51.1852 15.24L50.2252 20.01ZM67.4253 32.4C66.9253 32.48 66.3753 32.57 65.7753 32.67C65.1753 32.77 64.6353 32.86 64.1553 32.94C64.2353 32.28 64.3153 31.63 64.3953 30.99C64.4553 30.43 64.5053 29.87 64.5453 29.31C64.6053 28.75 64.6553 28.27 64.6953 27.87H62.0853L60.8853 32.19C60.4453 32.25 59.9253 32.32 59.3253 32.4C58.7253 32.46 58.1653 32.52 57.6453 32.58C57.0053 32.66 56.3753 32.74 55.7553 32.82C56.5553 30.16 57.3453 27.54 58.1253 24.96C58.4453 23.88 58.7753 22.75 59.1153 21.57C59.4753 20.39 59.8253 19.22 60.1653 18.06C60.5253 16.88 60.8653 15.75 61.1853 14.67C61.5053 13.59 61.7853 12.6 62.0253 11.7C63.3853 11.6 64.7653 11.48 66.1653 11.34C67.5853 11.2 68.9653 11.01 70.3053 10.77C70.2453 11.41 70.1753 12.21 70.0953 13.17C70.0353 14.11 69.9753 15.14 69.9153 16.26C69.8553 17.38 69.7953 18.55 69.7353 19.77C69.6753 20.99 69.6153 22.19 69.5553 23.37C69.4553 26.13 69.3453 29.06 69.2253 32.16C68.6253 32.26 68.0253 32.34 67.4253 32.4ZM62.8053 24.87C62.8853 24.87 63.0253 24.87 63.2253 24.87C63.4453 24.85 63.6653 24.84 63.8853 24.84C64.1253 24.82 64.3453 24.81 64.5453 24.81C64.7453 24.79 64.8853 24.77 64.9653 24.75C64.9653 24.63 64.9753 24.43 64.9953 24.15C65.0353 23.85 65.0653 23.52 65.0853 23.16C65.1253 22.78 65.1653 22.37 65.2053 21.93C65.2453 21.49 65.2853 21.06 65.3253 20.64C65.4053 19.62 65.5053 18.52 65.6253 17.34L65.8053 14.73L65.3553 14.76L64.6653 17.34L62.8053 24.87ZM69.5138 33.15C70.1138 30.27 70.6838 27.48 71.2238 24.78C71.4238 23.62 71.6338 22.42 71.8538 21.18C72.0938 19.94 72.3138 18.72 72.5138 17.52C72.7138 16.3 72.8938 15.14 73.0538 14.04C73.2138 12.92 73.3338 11.91 73.4138 11.01C73.6738 11.03 73.8938 11.04 74.0738 11.04C74.2538 11.04 74.4638 11.04 74.7038 11.04C74.9838 11.04 75.3238 11.04 75.7238 11.04C76.1238 11.02 76.5238 11 76.9238 10.98C77.3238 10.96 77.7538 10.94 78.2138 10.92C78.4938 12.32 78.7438 13.67 78.9638 14.97C79.1838 16.11 79.4038 17.28 79.6238 18.48C79.8638 19.68 80.0738 20.7 80.2538 21.54C80.3338 21.14 80.4238 20.68 80.5238 20.16C80.6238 19.62 80.7338 19.06 80.8538 18.48C80.9738 17.9 81.0838 17.32 81.1838 16.74C81.3038 16.14 81.4238 15.55 81.5438 14.97C81.8238 13.67 82.1138 12.33 82.4138 10.95L86.0738 10.5C85.3938 13.56 84.7938 16.46 84.2738 19.2C84.0338 20.38 83.7938 21.58 83.5538 22.8C83.3338 24 83.1238 25.16 82.9238 26.28C82.7238 27.38 82.5538 28.41 82.4138 29.37C82.2738 30.31 82.1638 31.1 82.0838 31.74C82.0238 31.74 81.7838 31.79 81.3638 31.89C80.9638 31.97 80.4938 32.07 79.9538 32.19C79.4338 32.31 78.9038 32.43 78.3638 32.55C77.8438 32.67 77.4538 32.78 77.1938 32.88C77.0738 31.28 76.9438 29.76 76.8038 28.32C76.7438 27.7 76.6738 27.07 76.5938 26.43C76.5338 25.77 76.4638 25.14 76.3838 24.54C76.3038 23.94 76.2238 23.38 76.1438 22.86C76.0638 22.34 75.9838 21.89 75.9038 21.51C75.8438 21.89 75.7638 22.33 75.6638 22.83C75.5638 23.33 75.4638 23.86 75.3638 24.42C75.2638 24.98 75.1638 25.57 75.0638 26.19C74.9638 26.79 74.8538 27.37 74.7338 27.93C74.4738 29.27 74.1938 30.67 73.8938 32.13L69.5138 33.15ZM96.2182 25.59C96.2182 26.71 95.9982 27.73 95.5582 28.65C95.1382 29.55 94.5582 30.33 93.8182 30.99C93.0982 31.65 92.2382 32.16 91.2382 32.52C90.2582 32.88 89.1982 33.06 88.0582 33.06C87.2582 33.06 86.4582 32.85 85.6582 32.43C84.8582 31.99 84.0882 31.3 83.3482 30.36L85.5682 26.01C85.7082 26.27 85.9182 26.54 86.1982 26.82C86.4782 27.08 86.7882 27.31 87.1282 27.51C87.4882 27.71 87.8382 27.88 88.1782 28.02C88.5382 28.14 88.8582 28.2 89.1382 28.2C89.3782 28.2 89.6282 28.16 89.8882 28.08C90.1482 28 90.3882 27.88 90.6082 27.72C90.8282 27.56 90.9982 27.38 91.1182 27.18C91.2582 26.96 91.3282 26.71 91.3282 26.43C91.3282 25.95 91.1682 25.51 90.8482 25.11C90.5482 24.69 90.1682 24.3 89.7082 23.94C89.2482 23.56 88.7482 23.18 88.2082 22.8C87.6682 22.42 87.1682 22.02 86.7082 21.6C86.2682 21.18 85.8882 20.71 85.5682 20.19C85.2482 19.67 85.0882 19.09 85.0882 18.45C85.0882 17.41 85.3982 16.44 86.0182 15.54C86.6382 14.64 87.4082 13.87 88.3282 13.23C89.2682 12.57 90.2882 12.05 91.3882 11.67C92.4882 11.29 93.5282 11.1 94.5082 11.1C95.0482 11.1 95.5582 11.17 96.0382 11.31C96.5182 11.43 96.9282 11.64 97.2682 11.94C97.6282 12.22 97.9082 12.58 98.1082 13.02C98.3282 13.46 98.4382 14.01 98.4382 14.67C98.4382 14.95 98.4082 15.23 98.3482 15.51C98.3082 15.79 98.2682 16.09 98.2282 16.41L93.8782 17.67C93.9182 17.51 93.9482 17.35 93.9682 17.19C94.0082 17.03 94.0282 16.87 94.0282 16.71C94.0282 16.11 93.9182 15.68 93.6982 15.42C93.4982 15.14 93.2282 15 92.8882 15C92.7282 15 92.5282 15.06 92.2882 15.18C92.0682 15.3 91.8382 15.46 91.5982 15.66C91.3782 15.84 91.1882 16.06 91.0282 16.32C90.8682 16.58 90.7882 16.86 90.7882 17.16C90.7882 17.64 90.9182 18.04 91.1782 18.36C91.4582 18.68 91.7982 18.98 92.1982 19.26C92.5982 19.54 93.0282 19.83 93.4882 20.13C93.9682 20.41 94.4082 20.78 94.8082 21.24C95.2082 21.7 95.5382 22.28 95.7982 22.98C96.0782 23.66 96.2182 24.53 96.2182 25.59ZM104.099 32.04C103.479 32.04 102.819 32.06 102.119 32.1C101.439 32.14 100.749 32.2 100.049 32.28C99.3488 32.36 98.6588 32.47 97.9788 32.61C97.3188 32.73 96.7188 32.88 96.1788 33.06C96.2988 32.16 96.4388 31.16 96.5988 30.06C96.7588 28.96 96.9388 27.82 97.1388 26.64C97.3588 25.46 97.5688 24.27 97.7688 23.07C97.9888 21.87 98.2088 20.72 98.4288 19.62C98.9288 17 99.4588 14.33 100.019 11.61L105.269 10.92C104.729 13.24 104.209 15.5 103.709 17.7C103.489 18.64 103.269 19.62 103.049 20.64C102.829 21.64 102.619 22.62 102.419 23.58C102.219 24.54 102.039 25.47 101.879 26.37C101.719 27.27 101.589 28.07 101.489 28.77C101.989 28.73 102.519 28.71 103.079 28.71C103.659 28.69 104.169 28.68 104.609 28.68C104.629 29.06 104.659 29.44 104.699 29.82C104.739 30.18 104.779 30.51 104.819 30.81C104.879 31.11 104.919 31.38 104.939 31.62C104.979 31.84 105.009 31.99 105.029 32.07C104.869 32.07 104.709 32.07 104.549 32.07C104.409 32.05 104.259 32.04 104.099 32.04ZM115.912 32.4C115.412 32.48 114.862 32.57 114.262 32.67C113.662 32.77 113.122 32.86 112.642 32.94C112.722 32.28 112.802 31.63 112.882 30.99C112.942 30.43 112.992 29.87 113.032 29.31C113.092 28.75 113.142 28.27 113.182 27.87H110.572L109.372 32.19C108.932 32.25 108.412 32.32 107.812 32.4C107.212 32.46 106.652 32.52 106.132 32.58C105.492 32.66 104.862 32.74 104.242 32.82C105.042 30.16 105.832 27.54 106.612 24.96C106.932 23.88 107.262 22.75 107.602 21.57C107.962 20.39 108.312 19.22 108.652 18.06C109.012 16.88 109.352 15.75 109.672 14.67C109.992 13.59 110.272 12.6 110.512 11.7C111.872 11.6 113.252 11.48 114.652 11.34C116.072 11.2 117.452 11.01 118.792 10.77C118.732 11.41 118.662 12.21 118.582 13.17C118.522 14.11 118.462 15.14 118.402 16.26C118.342 17.38 118.282 18.55 118.222 19.77C118.162 20.99 118.102 22.19 118.042 23.37C117.942 26.13 117.832 29.06 117.712 32.16C117.112 32.26 116.512 32.34 115.912 32.4ZM111.292 24.87C111.372 24.87 111.512 24.87 111.712 24.87C111.932 24.85 112.152 24.84 112.372 24.84C112.612 24.82 112.832 24.81 113.032 24.81C113.232 24.79 113.372 24.77 113.452 24.75C113.452 24.63 113.462 24.43 113.482 24.15C113.522 23.85 113.552 23.52 113.572 23.16C113.612 22.78 113.652 22.37 113.692 21.93C113.732 21.49 113.772 21.06 113.812 20.64C113.892 19.62 113.992 18.52 114.112 17.34L114.292 14.73L113.842 14.76L113.152 17.34L111.292 24.87ZM120.55 33.03C121.01 30.83 121.45 28.66 121.87 26.52C122.05 25.62 122.23 24.68 122.41 23.7C122.59 22.72 122.76 21.76 122.92 20.82C123.1 19.86 123.25 18.94 123.37 18.06C123.51 17.16 123.63 16.34 123.73 15.6C123.27 15.54 122.8 15.52 122.32 15.54C121.86 15.56 121.4 15.5 120.94 15.36C120.96 15.04 120.97 14.67 120.97 14.25C120.97 13.83 120.98 13.41 121 12.99C121.02 12.53 121.04 12.04 121.06 11.52C121.58 11.56 122.1 11.59 122.62 11.61C123.14 11.63 123.66 11.64 124.18 11.64C125.2 11.64 126.18 11.62 127.12 11.58C128.08 11.52 128.96 11.46 129.76 11.4C130.58 11.32 131.38 11.23 132.16 11.13L131.83 12.75C131.73 13.21 131.63 13.68 131.53 14.16C131.45 14.64 131.37 15.05 131.29 15.39C130.85 15.51 130.4 15.6 129.94 15.66C129.5 15.7 129.06 15.76 128.62 15.84C128.48 16.52 128.33 17.28 128.17 18.12C128.01 18.94 127.85 19.8 127.69 20.7C127.55 21.58 127.41 22.48 127.27 23.4C127.13 24.32 126.99 25.2 126.85 26.04C126.53 28.02 126.23 30.07 125.95 32.19L120.55 33.03ZM133.819 32.4C133.639 32.4 133.279 32.43 132.739 32.49C132.219 32.53 131.679 32.59 131.119 32.67C130.559 32.73 130.049 32.79 129.589 32.85C129.149 32.91 128.909 32.95 128.869 32.97C129.069 32.11 129.269 31.16 129.469 30.12C129.689 29.06 129.909 27.96 130.129 26.82C130.349 25.66 130.559 24.49 130.759 23.31C130.959 22.13 131.149 20.99 131.329 19.89C131.749 17.33 132.169 14.7 132.589 12L137.269 11.25C136.809 13.93 136.359 16.56 135.919 19.14C135.739 20.24 135.549 21.38 135.349 22.56C135.169 23.74 134.979 24.91 134.779 26.07C134.599 27.23 134.429 28.36 134.269 29.46C134.109 30.54 133.959 31.52 133.819 32.4ZM151.584 16.77C151.584 18.41 151.404 19.96 151.044 21.42C150.704 22.86 150.244 24.19 149.664 25.41C149.084 26.61 148.404 27.69 147.624 28.65C146.864 29.59 146.064 30.4 145.224 31.08C144.384 31.74 143.534 32.25 142.674 32.61C141.814 32.95 140.994 33.12 140.214 33.12C139.554 33.12 138.954 33 138.414 32.76C137.874 32.5 137.404 32.13 137.004 31.65C136.604 31.15 136.284 30.52 136.044 29.76C135.824 28.98 135.714 28.05 135.714 26.97C135.714 25.85 135.854 24.67 136.134 23.43C136.414 22.19 136.794 20.96 137.274 19.74C137.754 18.52 138.344 17.36 139.044 16.26C139.744 15.16 140.514 14.19 141.354 13.35C142.194 12.49 143.094 11.81 144.054 11.31C145.014 10.81 146.014 10.56 147.054 10.56C147.954 10.56 148.694 10.75 149.274 11.13C149.874 11.49 150.334 11.97 150.654 12.57C150.994 13.15 151.234 13.81 151.374 14.55C151.514 15.29 151.584 16.03 151.584 16.77ZM140.184 26.19C140.184 26.41 140.224 26.64 140.304 26.88C140.384 27.12 140.494 27.33 140.634 27.51C140.774 27.69 140.944 27.85 141.144 27.99C141.364 28.11 141.594 28.17 141.834 28.17C142.734 28.17 143.534 27.86 144.234 27.24C144.934 26.62 145.514 25.86 145.974 24.96C146.434 24.06 146.784 23.1 147.024 22.08C147.284 21.06 147.414 20.13 147.414 19.29C147.414 19.05 147.394 18.79 147.354 18.51C147.334 18.23 147.274 17.97 147.174 17.73C147.094 17.49 146.954 17.29 146.754 17.13C146.574 16.95 146.324 16.86 146.004 16.86C145.364 16.86 144.774 17.02 144.234 17.34C143.694 17.66 143.204 18.09 142.764 18.63C142.344 19.15 141.974 19.75 141.654 20.43C141.334 21.09 141.054 21.77 140.814 22.47C140.594 23.15 140.434 23.82 140.334 24.48C140.234 25.14 140.184 25.71 140.184 26.19ZM149.729 33.15C150.329 30.27 150.899 27.48 151.439 24.78C151.639 23.62 151.849 22.42 152.069 21.18C152.309 19.94 152.529 18.72 152.729 17.52C152.929 16.3 153.109 15.14 153.269 14.04C153.429 12.92 153.549 11.91 153.629 11.01C153.889 11.03 154.109 11.04 154.289 11.04C154.469 11.04 154.679 11.04 154.919 11.04C155.199 11.04 155.539 11.04 155.939 11.04C156.339 11.02 156.739 11 157.139 10.98C157.539 10.96 157.969 10.94 158.429 10.92C158.709 12.32 158.959 13.67 159.179 14.97C159.399 16.11 159.619 17.28 159.839 18.48C160.079 19.68 160.289 20.7 160.469 21.54C160.549 21.14 160.639 20.68 160.739 20.16C160.839 19.62 160.949 19.06 161.069 18.48C161.189 17.9 161.299 17.32 161.399 16.74C161.519 16.14 161.639 15.55 161.759 14.97C162.039 13.67 162.329 12.33 162.629 10.95L166.289 10.5C165.609 13.56 165.009 16.46 164.489 19.2C164.249 20.38 164.009 21.58 163.769 22.8C163.549 24 163.339 25.16 163.139 26.28C162.939 27.38 162.769 28.41 162.629 29.37C162.489 30.31 162.379 31.1 162.299 31.74C162.239 31.74 161.999 31.79 161.579 31.89C161.179 31.97 160.709 32.07 160.169 32.19C159.649 32.31 159.119 32.43 158.579 32.55C158.059 32.67 157.669 32.78 157.409 32.88C157.289 31.28 157.159 29.76 157.019 28.32C156.959 27.7 156.889 27.07 156.809 26.43C156.749 25.77 156.679 25.14 156.599 24.54C156.519 23.94 156.439 23.38 156.359 22.86C156.279 22.34 156.199 21.89 156.119 21.51C156.059 21.89 155.979 22.33 155.879 22.83C155.779 23.33 155.679 23.86 155.579 24.42C155.479 24.98 155.379 25.57 155.279 26.19C155.179 26.79 155.069 27.37 154.949 27.93C154.689 29.27 154.409 30.67 154.109 32.13L149.729 33.15ZM169.272 33.06C169.792 30.3 170.302 27.59 170.802 24.93C170.982 23.81 171.182 22.65 171.402 21.45C171.622 20.23 171.832 19.03 172.032 17.85C172.232 16.67 172.422 15.53 172.602 14.43C172.782 13.31 172.942 12.29 173.082 11.37L177.942 11.04C177.602 12.44 177.262 13.9 176.922 15.42C176.602 16.94 176.302 18.42 176.022 19.86L178.992 19.53C179.272 18.11 179.522 16.74 179.742 15.42C179.962 14.08 180.252 12.7 180.612 11.28C181.072 11.2 181.582 11.14 182.142 11.1C182.702 11.04 183.222 10.99 183.702 10.95C184.182 10.91 184.582 10.88 184.902 10.86C185.242 10.82 185.412 10.8 185.412 10.8C185.132 11.7 184.862 12.69 184.602 13.77C184.362 14.83 184.122 15.94 183.882 17.1C183.642 18.24 183.412 19.4 183.192 20.58C182.972 21.76 182.772 22.88 182.592 23.94C182.152 26.48 181.742 29.08 181.362 31.74L176.682 32.28C176.942 31.08 177.172 29.91 177.372 28.77C177.572 27.81 177.772 26.81 177.972 25.77C178.192 24.73 178.362 23.84 178.482 23.1L175.572 23.37C175.432 24.13 175.262 25.01 175.062 26.01C174.882 27.01 174.712 27.96 174.552 28.86C174.332 29.94 174.112 31.02 173.892 32.1L169.272 33.06ZM187.374 32.4C187.194 32.4 186.834 32.43 186.294 32.49C185.774 32.53 185.234 32.59 184.674 32.67C184.114 32.73 183.604 32.79 183.144 32.85C182.704 32.91 182.464 32.95 182.424 32.97C182.624 32.11 182.824 31.16 183.024 30.12C183.244 29.06 183.464 27.96 183.684 26.82C183.904 25.66 184.114 24.49 184.314 23.31C184.514 22.13 184.704 20.99 184.884 19.89C185.304 17.33 185.724 14.7 186.144 12L190.824 11.25C190.364 13.93 189.914 16.56 189.474 19.14C189.294 20.24 189.104 21.38 188.904 22.56C188.724 23.74 188.534 24.91 188.334 26.07C188.154 27.23 187.984 28.36 187.824 29.46C187.664 30.54 187.514 31.52 187.374 32.4ZM201.628 25.59C201.628 26.71 201.408 27.73 200.968 28.65C200.548 29.55 199.968 30.33 199.228 30.99C198.508 31.65 197.648 32.16 196.648 32.52C195.668 32.88 194.608 33.06 193.468 33.06C192.668 33.06 191.868 32.85 191.068 32.43C190.268 31.99 189.498 31.3 188.758 30.36L190.978 26.01C191.118 26.27 191.328 26.54 191.608 26.82C191.888 27.08 192.198 27.31 192.538 27.51C192.898 27.71 193.248 27.88 193.588 28.02C193.948 28.14 194.268 28.2 194.548 28.2C194.788 28.2 195.038 28.16 195.298 28.08C195.558 28 195.798 27.88 196.018 27.72C196.238 27.56 196.408 27.38 196.528 27.18C196.668 26.96 196.738 26.71 196.738 26.43C196.738 25.95 196.578 25.51 196.258 25.11C195.958 24.69 195.578 24.3 195.118 23.94C194.658 23.56 194.158 23.18 193.618 22.8C193.078 22.42 192.578 22.02 192.118 21.6C191.678 21.18 191.298 20.71 190.978 20.19C190.658 19.67 190.498 19.09 190.498 18.45C190.498 17.41 190.808 16.44 191.428 15.54C192.048 14.64 192.818 13.87 193.738 13.23C194.678 12.57 195.698 12.05 196.798 11.67C197.898 11.29 198.938 11.1 199.918 11.1C200.458 11.1 200.968 11.17 201.448 11.31C201.928 11.43 202.338 11.64 202.678 11.94C203.038 12.22 203.318 12.58 203.518 13.02C203.738 13.46 203.848 14.01 203.848 14.67C203.848 14.95 203.818 15.23 203.758 15.51C203.718 15.79 203.678 16.09 203.638 16.41L199.288 17.67C199.328 17.51 199.358 17.35 199.378 17.19C199.418 17.03 199.438 16.87 199.438 16.71C199.438 16.11 199.328 15.68 199.108 15.42C198.908 15.14 198.638 15 198.298 15C198.138 15 197.938 15.06 197.698 15.18C197.478 15.3 197.248 15.46 197.008 15.66C196.788 15.84 196.598 16.06 196.438 16.32C196.278 16.58 196.198 16.86 196.198 17.16C196.198 17.64 196.328 18.04 196.588 18.36C196.868 18.68 197.208 18.98 197.608 19.26C198.008 19.54 198.438 19.83 198.898 20.13C199.378 20.41 199.818 20.78 200.218 21.24C200.618 21.7 200.948 22.28 201.208 22.98C201.488 23.66 201.628 24.53 201.628 25.59ZM203.929 33.03C204.389 30.83 204.829 28.66 205.249 26.52C205.429 25.62 205.609 24.68 205.789 23.7C205.969 22.72 206.139 21.76 206.299 20.82C206.479 19.86 206.629 18.94 206.749 18.06C206.889 17.16 207.009 16.34 207.109 15.6C206.649 15.54 206.179 15.52 205.699 15.54C205.239 15.56 204.779 15.5 204.319 15.36C204.339 15.04 204.349 14.67 204.349 14.25C204.349 13.83 204.359 13.41 204.379 12.99C204.399 12.53 204.419 12.04 204.439 11.52C204.959 11.56 205.479 11.59 205.999 11.61C206.519 11.63 207.039 11.64 207.559 11.64C208.579 11.64 209.559 11.62 210.499 11.58C211.459 11.52 212.339 11.46 213.139 11.4C213.959 11.32 214.759 11.23 215.539 11.13L215.209 12.75C215.109 13.21 215.009 13.68 214.909 14.16C214.829 14.64 214.749 15.05 214.669 15.39C214.229 15.51 213.779 15.6 213.319 15.66C212.879 15.7 212.439 15.76 211.999 15.84C211.859 16.52 211.709 17.28 211.549 18.12C211.389 18.94 211.229 19.8 211.069 20.7C210.929 21.58 210.789 22.48 210.649 23.4C210.509 24.32 210.369 25.2 210.229 26.04C209.909 28.02 209.609 30.07 209.329 32.19L203.929 33.03ZM228.898 16.77C228.898 18.41 228.718 19.96 228.358 21.42C228.018 22.86 227.558 24.19 226.978 25.41C226.398 26.61 225.718 27.69 224.938 28.65C224.178 29.59 223.378 30.4 222.538 31.08C221.698 31.74 220.848 32.25 219.988 32.61C219.128 32.95 218.308 33.12 217.528 33.12C216.868 33.12 216.268 33 215.728 32.76C215.188 32.5 214.718 32.13 214.318 31.65C213.918 31.15 213.598 30.52 213.358 29.76C213.138 28.98 213.028 28.05 213.028 26.97C213.028 25.85 213.168 24.67 213.448 23.43C213.728 22.19 214.108 20.96 214.588 19.74C215.068 18.52 215.658 17.36 216.358 16.26C217.058 15.16 217.828 14.19 218.668 13.35C219.508 12.49 220.408 11.81 221.368 11.31C222.328 10.81 223.328 10.56 224.368 10.56C225.268 10.56 226.008 10.75 226.588 11.13C227.188 11.49 227.648 11.97 227.968 12.57C228.308 13.15 228.548 13.81 228.688 14.55C228.828 15.29 228.898 16.03 228.898 16.77ZM217.498 26.19C217.498 26.41 217.538 26.64 217.618 26.88C217.698 27.12 217.808 27.33 217.948 27.51C218.088 27.69 218.258 27.85 218.458 27.99C218.678 28.11 218.908 28.17 219.148 28.17C220.048 28.17 220.848 27.86 221.548 27.24C222.248 26.62 222.828 25.86 223.288 24.96C223.748 24.06 224.098 23.1 224.338 22.08C224.598 21.06 224.728 20.13 224.728 19.29C224.728 19.05 224.708 18.79 224.668 18.51C224.648 18.23 224.588 17.97 224.488 17.73C224.408 17.49 224.268 17.29 224.068 17.13C223.888 16.95 223.638 16.86 223.318 16.86C222.678 16.86 222.088 17.02 221.548 17.34C221.008 17.66 220.518 18.09 220.078 18.63C219.658 19.15 219.288 19.75 218.968 20.43C218.648 21.09 218.368 21.77 218.128 22.47C217.908 23.15 217.748 23.82 217.648 24.48C217.548 25.14 217.498 25.71 217.498 26.19ZM227.013 33.03C227.553 30.37 228.073 27.77 228.573 25.23C228.753 24.15 228.953 23.03 229.173 21.87C229.393 20.69 229.593 19.53 229.773 18.39C229.973 17.23 230.153 16.12 230.313 15.06C230.493 13.98 230.633 13 230.733 12.12C231.873 11.76 233.103 11.5 234.423 11.34C235.743 11.16 237.053 11.07 238.353 11.07C239.133 11.07 239.773 11.16 240.273 11.34C240.793 11.52 241.193 11.78 241.473 12.12C241.773 12.44 241.983 12.82 242.103 13.26C242.223 13.7 242.283 14.19 242.283 14.73C242.283 15.53 242.143 16.32 241.863 17.1C241.583 17.86 241.203 18.59 240.723 19.29C240.263 19.97 239.723 20.6 239.103 21.18C238.503 21.74 237.853 22.2 237.153 22.56C237.513 23.36 237.893 24.24 238.293 25.2C238.713 26.14 239.103 27.04 239.463 27.9C239.863 28.9 240.273 29.9 240.693 30.9L236.043 32.52C235.643 31.24 235.283 30.04 234.963 28.92C234.823 28.46 234.683 27.99 234.543 27.51C234.403 27.01 234.273 26.54 234.153 26.1C234.033 25.66 233.933 25.27 233.853 24.93C233.773 24.57 233.723 24.28 233.703 24.06L233.313 24.18C233.193 24.82 233.043 25.57 232.863 26.43C232.703 27.29 232.553 28.12 232.413 28.92C232.233 29.86 232.053 30.81 231.873 31.77L227.013 33.03ZM234.063 20.01C234.443 19.97 234.903 19.81 235.443 19.53C236.003 19.25 236.533 18.92 237.033 18.54C237.533 18.14 237.963 17.73 238.323 17.31C238.683 16.89 238.863 16.52 238.863 16.2C238.863 15.98 238.793 15.81 238.653 15.69C238.513 15.55 238.313 15.45 238.053 15.39C237.813 15.31 237.543 15.26 237.243 15.24C236.943 15.22 236.633 15.21 236.313 15.21C236.093 15.21 235.863 15.22 235.623 15.24C235.403 15.24 235.203 15.24 235.023 15.24L234.063 20.01ZM242.533 32.55L243.913 26.52C243.913 25.66 243.893 24.73 243.853 23.73C243.833 22.71 243.793 21.69 243.733 20.67C243.673 19.65 243.613 18.67 243.553 17.73C243.493 16.77 243.443 15.93 243.403 15.21C243.363 14.47 243.323 13.88 243.283 13.44C243.243 13 243.223 12.78 243.223 12.78L248.113 10.92V14.58C248.113 15.08 248.113 15.59 248.113 16.11C248.113 16.63 248.103 17.14 248.083 17.64C248.083 18.14 248.083 18.61 248.083 19.05C248.083 19.49 248.083 19.86 248.083 20.16C248.343 19.48 248.653 18.64 249.013 17.64C249.393 16.64 249.743 15.67 250.063 14.73C250.443 13.63 250.833 12.47 251.233 11.25L255.883 12.3C255.023 14.02 254.183 15.73 253.363 17.43C253.023 18.17 252.663 18.94 252.283 19.74C251.903 20.52 251.523 21.31 251.143 22.11C250.763 22.89 250.393 23.65 250.033 24.39C249.673 25.13 249.343 25.82 249.043 26.46C248.943 26.98 248.813 27.55 248.653 28.17C248.513 28.79 248.373 29.38 248.233 29.94C248.053 30.6 247.863 31.26 247.663 31.92L242.533 32.55Z" fill="white"/>
<defs>
<filter id="filter0_d" x="0.189636" y="0.500671" width="284.545" height="51.0142" filterUnits="userSpaceOnUse" color-interpolation-filters="sRGB">
<feFlood flood-opacity="0" result="BackgroundImageFix"/>
<feColorMatrix in="SourceAlpha" type="matrix" values="0 0 0 0 0 0 0 0 0 0 0 0 0 0 0 0 0 0 127 0"/>
<feOffset dy="4"/>
<feGaussianBlur stdDeviation="2"/>
<feColorMatrix type="matrix" values="0 0 0 0 0 0 0 0 0 0 0 0 0 0 0 0 0 0 0.25 0"/>
<feBlend mode="normal" in2="BackgroundImageFix" result="effect1_dropShadow"/>
<feBlend mode="normal" in="SourceGraphic" in2="effect1_dropShadow" result="shape"/>
</filter>
</defs>
</svg>
